# Exported from Wings 3D 1.5.4
mtllib Leg2.mtl
o HumanMale_meHumanMale.001_sep3
#42 vertices, 40 faces
v -7.08508545 0.39823700 -8.8862000e-2
v -7.01829145 0.42448900 -0.13224000
v -6.94236845 0.42978800 -8.2379000e-2
v -6.94064945 0.40981400 -1.1763000e-2
v -7.01474245 0.38325400 2.3926000e-2
v -7.08291745 0.37304800 -1.2606000e-2
v -7.01911945 4.0297000e-2 0.14857700
v -6.97959945 4.3130000e-2 0.17680200
v -6.92332645 4.0297000e-2 0.14857700
v -7.01911945 2.8600000e-3 0.14857700
v -6.97923945 2.8600000e-3 0.17680200
v -6.92097645 2.8600000e-3 0.14857700
v -6.98184245 2.8600000e-3 -0.13485500
v -6.92927245 2.8600000e-3 -8.8294000e-2
v -6.92573945 2.8600000e-3 -7.0830000e-3
v -6.98217145 2.8600000e-3 -6.8830000e-3
v -7.01692445 2.8610000e-3 -7.0830000e-3
v -7.02952645 2.8600000e-3 -8.8294000e-2
v -7.09015045 0.56356800 -5.5394000e-2
v -7.08831645 0.54191300 1.1605000e-2
v -7.02700745 0.52264100 4.2353000e-2
v -6.97436345 0.55221400 1.1605000e-2
v -6.97619745 0.57386900 -5.5394000e-2
v -7.03081545 0.56761900 -8.5086000e-2
v -6.98224245 0.11345000 -0.12389200
v -6.94771745 0.11345000 -9.1304000e-2
v -6.94771745 0.11345000 -4.4072000e-2
v -6.98224245 0.11345000 -1.0137000e-2
v -7.01676845 0.11345000 -4.4071000e-2
v -7.01676845 0.11345000 -9.1304000e-2
v -6.97992945 6.9211000e-2 8.6364000e-2
v -7.01942345 4.9709000e-2 8.2298000e-2
v -7.02063445 2.8600000e-3 7.9272000e-2
v -6.91839745 4.9709000e-2 8.2298000e-2
v -6.91571745 2.8600000e-3 7.9272000e-2
v -6.97950545 2.8600000e-3 8.0164000e-2
v -7.06279745 0.28562300 -7.3412000e-2
v -7.00890145 0.33080600 -0.11913000
v -6.94702045 0.31998700 -6.9367000e-2
v -6.94587245 0.30664700 -1.7304000e-2
v -7.00574245 0.28908600 8.5470000e-3
v -7.06164945 0.27228300 -2.1350000e-2
vt 0.50653700 0.17049000
vt 0.53732200 0.18277400
vt 0.53930000 0.10119900
vt 0.57093100 0.19046000
vt 0.57278800 0.11322100
vt 0.57765700 6.5202000e-2
vt 0.59471000 0.21446300
vt 0.59933300 7.6390000e-2
vt 0.60048300 0.13293000
vt 0.62125500 9.6181000e-2
vt 0.62454500 0.23677000
vt 0.62767000 0.0000000e+0
vt 0.62898200 0.15532600
vt 0.64353200 1.4996000e-2
vt 0.64541900 0.11445000
vt 0.65254500 0.17252800
vt 0.65579900 0.24906300
vt 0.66283900 2.6319000e-2
vt 0.66573300 0.12781400
vt 0.68340900 3.4228000e-2
vt 0.68514300 0.18452800
vt 0.68722000 0.26213300
vt 0.69816800 0.14539800
vt 0.70412600 4.0705000e-2
vt 0.72145300 0.18975200
vt 0.72446300 4.7770000e-2
vt 0.73649500 0.13747700
vt 0.74490700 5.5477000e-2
vt 0.74490700 0.54998200
vt 0.74490700 0.88606500
vt 0.74900900 0.51826100
vt 0.75060100 0.57353700
vt 0.75788200 0.91947700
vt 0.76115900 0.50295300
vt 0.76226300 0.86531700
vt 0.76299700 0.54885800
vt 0.76334300 0.58795100
vt 0.76722600 0.52167000
vt 0.76865000 0.56917400
vt 0.79578500 0.49154900
vt 0.79589200 0.92547300
vt 0.79811100 0.59777700
vt 0.79824800 0.89023200
vt 0.80057600 0.86757500
vt 0.80188500 0.51547100
vt 0.80389700 0.57344900
vt 0.80547700 0.54972100
vt 0.83933800 0.47774200
vt 0.84051400 0.61246100
vt 0.84399400 0.92379700
vt 0.84640300 0.89264700
vt 0.84806400 0.87347700
vt 0.86150400 0.54793200
vt 0.87689000 0.52757900
vt 0.87854000 0.56607400
vt 0.87990600 0.46427200
vt 0.87995500 0.62767200
vt 0.88896700 0.92547200
vt 0.89344300 0.87014800
vt 0.90040300 0.51957500
vt 0.90131800 0.57452200
vt 0.91289000 0.63718400
vt 0.91599600 0.45644600
vt 0.91700800 0.89854100
vt 0.92478800 0.51422100
vt 0.92478800 0.58127200
vn -0.86994826 -7.0011588e-2 -0.48814793
vn 8.6487080e-3 5.8456702e-2 -0.99825248
vn 0.87548152 0.10840742 -0.47093517
vn 0.85228911 1.0923195e-2 0.52295694
vn 6.2152670e-3 -0.12985843 0.99151307
vn -0.84427061 -0.16413280 0.51016424
vn -0.81017369 0.39033975 0.43732536
vn -8.4491055e-2 0.65606438 0.74996052
vn 0.72998566 0.44269829 0.52071026
vn -0.77429663 -0.48484278 0.40668442
vn -5.2176877e-2 -0.75663797 0.65174884
vn 0.72989824 -0.47115696 0.49523699
vn -9.3149470e-3 -0.78601223 -0.61814076
vn 0.84084198 -0.37681879 -0.38857736
vn 0.75430824 -0.65319764 -6.5969164e-2
vn -5.5586623e-6 -1.00000000 -1.3225019e-7
vn -0.71940215 -0.69415736 2.4619211e-2
vn -0.84614107 -0.43194918 -0.31219416
vn -0.58734699 0.80622574 -7.0877173e-2
vn -0.68202467 0.39380634 0.61624583
vn 2.1080277e-2 0.57634439 0.81693498
vn 0.62957676 0.51521125 0.58154146
vn 0.83992147 0.29673486 -0.45440109
vn -7.6131363e-2 0.72805679 -0.68127625
vn -2.9184358e-3 5.3952177e-2 -0.99853926
vn 0.90368948 9.3212016e-2 -0.41791965
vn 0.93144615 0.26480859 0.24956859
vn -3.1397839e-2 0.50102885 0.86486084
vn -0.94712524 0.10230344 0.30411803
vn -0.91762356 -5.4902917e-2 -0.39364028
vn -5.2839528e-2 0.94592693 0.32004721
vn -0.83140309 0.52658360 0.17742213
vn -0.70986349 -0.70431961 -5.2638958e-3
vn 0.77655175 0.60891280 0.16184124
vn 0.73534663 -0.67724436 -2.4605220e-2
vn -3.2735576e-6 -1.00000000 -1.4614456e-6
vn -0.86173491 -0.20415774 -0.46447019
vn 2.7872832e-2 -8.5460170e-2 -0.99595164
vn 0.89499676 -1.5327992e-2 -0.44580921
vn 0.86920928 -6.1251072e-2 0.49063584
vn 3.1003830e-3 -0.15696887 0.98759868
vn -0.84458478 -0.24643028 0.47534058
g HumanMale_meHumanMale.001_sep3_Material.001
usemtl Material.001
s 1
f 1/25/1 19/22/19 24/17/24 2/21/2
f 1/3/1 37/6/37 42/8/42 6/5/6
f 2/21/2 24/17/24 23/11/23 3/16/3
f 2/21/2 38/23/38 37/27/37 1/25/1
f 3/16/3 23/11/23 22/7/22 4/13/4
f 3/16/3 39/19/39 38/23/38 2/21/2
f 4/13/4 22/7/22 21/4/21 5/9/5
f 4/13/4 40/15/40 39/19/39 3/16/3
f 5/9/5 21/4/21 20/2/20 6/5/6
f 5/9/5 41/10/41 40/15/40 4/13/4
f 6/5/6 20/2/20 19/1/19 1/3/1
f 6/5/6 42/8/42 41/10/41 5/9/5
f 7/39/7 10/32/10 11/29/11 8/36/8
f 7/39/7 32/46/32 33/42/33 10/37/10
f 8/36/8 11/29/11 12/31/12 9/38/9
f 8/36/8 31/47/31 32/46/32 7/39/7
f 9/38/9 34/45/34 31/47/31 8/36/8
f 10/35/10 33/44/33 36/43/36 11/30/11
f 11/30/11 36/43/36 35/41/35 12/33/12
f 12/34/12 35/40/35 34/45/34 9/38/9
f 13/63/13 25/65/25 26/60/26 14/56/14
f 14/58/14 15/50/15 16/51/16 13/64/13
f 14/56/14 26/60/26 27/54/27 15/48/15
f 15/50/15 35/41/35 36/43/36 16/51/16
f 16/51/16 17/52/17 18/59/18 13/64/13
f 16/51/16 36/43/36 33/44/33 17/52/17
f 17/49/17 29/55/29 30/61/30 18/57/18
f 17/49/17 33/42/33 32/46/32 29/55/29
f 18/57/18 30/61/30 25/66/25 13/62/13
f 25/26/25 38/23/38 39/19/39 26/24/26
f 26/24/26 39/19/39 40/15/40 27/20/27
f 27/54/27 34/45/34 35/40/35 15/48/15
f 27/20/27 40/15/40 41/10/41 28/18/28
f 28/53/28 31/47/31 34/45/34 27/54/27
f 28/18/28 41/10/41 42/8/42 29/14/29
f 29/55/29 32/46/32 31/47/31 28/53/28
f 29/14/29 42/8/42 37/6/37 30/12/30
f 30/28/30 37/27/37 38/23/38 25/26/25
g HumanMale_meHumanMale.001_sep3_default
usemtl default
s 1
f 19//19 21//21 22//22 24//24
f 20//20 21//21 19//19
