# Exported from Wings 3D 2.1.5
mtllib Bossbullet.mtl
o Cylinder3
#20 vertices, 24 faces
v 1.00000000 3.8397149e-3 -2.69320301
v 0.50000000 0.86985873 -2.68987772
v -0.50000000 0.86985873 -2.68987772
v -1.00000000 3.8397149e-3 -2.69320301
v -0.50000000 -0.86217930 -2.69652830
v 0.50000000 -0.86217930 -2.69652830
v 1.00000000 -3.8397149e-3 3.33960457
v 0.50000000 0.86217930 3.34292986
v -0.50000000 0.86217930 3.34292986
v -1.00000000 -3.8397149e-3 3.33960457
v -0.50000000 -0.86985873 3.33627928
v 0.50000000 -0.86985873 3.33627928
v 0.0000000e+0 -3.8397149e-3 6.03423479
v -2.2204460e-16 3.8397149e-3 -0.99999263
v 1.6653345e-16 0.86985873 -0.99666734
v 0.75000000 0.43684922 -0.99832998
v 0.75000000 -0.42916979 -1.00165527
v -0.75000000 0.43684922 -0.99832998
v -0.75000000 -0.42916979 -1.00165527
v -5.5511151e-16 -0.86217930 -1.00331792
vt 0.0000000e+0 0.0000000e+0
vt 5.5293299e-2 0.40950171
vt 0.20504362 0.35505584
vt 0.22459781 0.47745659
vt 0.25041499 0.74746240
vt 0.27256484 0.48176507
vt 0.27596712 0.56653786
vt 0.28020041 0.50485814
vt 0.28105605 0.47698517
vt 0.28863542 0.49983399
vt 0.29632695 0.52300004
vt 0.29714793 0.49507246
vt 0.30127268 0.43322173
vt 0.30478311 0.51799433
vt 0.32699507 0.25274936
vt 0.35271008 0.52218649
vt 0.37247329 0.64502064
vt 0.52203546 0.59049334
vt 0.57741534 1.00000000
vt 0.57741534 2.8752201e-2
vt 0.65758212 0.16767170
vt 0.73527851 0.0000000e+0
vt 0.76656307 0.11665788
vt 0.79818948 0.23275709
vt 0.87574874 6.5021913e-2
vt 0.95597883 0.20398450
vn 0.80662927 7.0389215e-4 -0.59105729
vn 0.40375973 0.70003805 -0.58900323
vn -0.40375973 0.70003805 -0.58900323
vn -0.80662927 7.0389215e-4 -0.59105729
vn -0.40286281 -0.69707674 -0.59311514
vn 0.40286281 -0.69707674 -0.59311514
vn 0.98401200 -5.2890208e-4 0.17810139
vn 0.49216152 0.85192145 0.17890466
vn -0.49216152 0.85192145 0.17890466
vn -0.98401200 -5.2890208e-4 0.17810139
vn -0.49184897 -0.85243790 0.17729700
vn 0.49184897 -0.85243790 0.17729700
vn -2.4189838e-16 -2.0996017e-3 0.99999780
vn 0.0000000e+0 2.0738478e-3 -0.99999785
vn 9.6504582e-17 0.87112553 -0.49106039
vn 0.75391525 0.43542561 -0.49195155
vn 0.75317013 -0.43469186 -0.49373854
vn -0.75391525 0.43542561 -0.49195155
vn -0.75317013 -0.43469186 -0.49373854
vn -4.8350015e-16 -0.86910117 -0.49463436
g Cylinder3_Cylinder3_auv
usemtl Cylinder3_auv
s 1
f 1/16/1 7/2/7 12/1/12 6/17/6 17/6/17
f 1/16/1 14/10/14 16/8/16
f 2/13/2 14/10/14 15/11/15
f 2/13/2 16/8/16 14/10/14
f 3/3/3 14/10/14 18/14/18
f 3/3/3 15/11/15 14/10/14
f 4/4/4 14/10/14 19/12/19
f 4/4/4 18/14/18 14/10/14
f 5/7/5 14/10/14 20/9/20
f 5/7/5 19/12/19 14/10/14
f 6/17/6 20/9/20 14/10/14
f 7/26/7 13/23/13 12/25/12
f 8/24/8 13/23/13 7/26/7
f 9/21/9 13/23/13 8/24/8
f 10/20/10 13/23/13 9/21/9
f 11/22/11 13/23/13 10/20/10
f 12/25/12 13/23/13 11/22/11
f 14/10/14 17/6/17 6/17/6
f 15/11/15 3/3/3 9/19/9 8/5/8 2/13/2
f 16/8/16 2/13/2 8/5/8 7/2/7 1/16/1
f 17/6/17 14/10/14 1/16/1
f 18/14/18 4/4/4 10/18/10 9/19/9 3/3/3
f 19/12/19 5/7/5 11/15/11 10/18/10 4/4/4
f 20/9/20 6/17/6 12/1/12 11/15/11 5/7/5
